{
  "annotations": {
    "list": [
      {
        "builtIn": 1,
        "datasource": "-- Grafana --",
        "enable": true,
        "hide": true,
        "iconColor": "rgba(0, 211, 255, 1)",
        "name": "Annotations & Alerts",
        "type": "dashboard"
      }
    ]
  },
  "editable": true,
  "gnetId": null,
  "graphTooltip": 0,
  "id": 9,
  "iteration": 1538670642108,
  "links": [],
  "panels": [
    {
      "content": "<div class=\"dashboard-header text-center\">\n<span>OUTBOUND SERVICES</span>\n</div>",
      "gridPos": {
        "h": 3,
        "w": 24,
        "x": 0,
        "y": 0
      },
      "id": 69,
      "links": [],
      "mode": "html",
      "title": "",
      "transparent": true,
      "type": "text"
    },
    {
      "aliasColors": {},
      "bars": false,
      "dashLength": 10,
      "dashes": false,
      "datasource": "Prometheus",
      "fill": 1,
      "gridPos": {
        "h": 8,
        "w": 24,
        "x": 0,
        "y": 3
      },
      "id": 76,
      "legend": {
        "avg": false,
        "current": false,
        "max": false,
        "min": false,
        "show": true,
        "total": false,
        "values": false
      },
      "lines": true,
      "linewidth": 1,
      "links": [],
      "nullPointMode": "null",
      "percentage": false,
      "pointradius": 5,
      "points": false,
      "renderer": "flot",
      "seriesOverrides": [],
      "spaceLength": 10,
      "stack": false,
      "steppedLine": false,
      "targets": [
        {
          "expr": "round(sum(irate(istio_requests_total{destination_service_namespace=\"hooroosh-staging\", response_code=\"200\"}[30s])) by (destination_version, destination_service_name), 0.001)",
          "format": "time_series",
          "intervalFactor": 1,
          "legendFormat": "{{destination_service_name}} ({{destination_version}})",
          "refId": "A"
        }
      ],
      "thresholds": [],
      "timeFrom": null,
      "timeShift": null,
      "title": "Requests from gateway",
      "tooltip": {
        "shared": true,
        "sort": 0,
        "value_type": "individual"
      },
      "type": "graph",
      "xaxis": {
        "buckets": null,
        "mode": "time",
        "name": null,
        "show": true,
        "values": []
      },
      "yaxes": [
        {
          "format": "ops",
          "label": null,
          "logBase": 1,
          "max": null,
          "min": null,
          "show": true
        },
        {
          "format": "short",
          "label": null,
          "logBase": 1,
          "max": null,
          "min": null,
          "show": true
        }
      ],
      "yaxis": {
        "align": false,
        "alignLevel": null
      }
    },
    {
      "aliasColors": {
        "api-svc.hooroosh-staging.svc.cluster.local : 101": "#890f02",
        "api-svc.hooroosh-staging.svc.cluster.local : 200": "#7eb26d",
        "frontend-svc.hooroosh-staging.svc.cluster.local : 200": "#eab839"
      },
      "bars": false,
      "dashLength": 10,
      "dashes": false,
      "datasource": "Prometheus",
      "fill": 0,
      "gridPos": {
        "h": 6,
        "w": 12,
        "x": 0,
        "y": 11
      },
      "id": 70,
      "legend": {
        "avg": false,
        "current": false,
        "hideEmpty": true,
        "max": false,
        "min": false,
        "show": true,
        "total": false,
        "values": false
      },
      "lines": true,
      "linewidth": 1,
      "links": [],
      "nullPointMode": "null as zero",
      "percentage": false,
      "pointradius": 5,
      "points": false,
      "renderer": "flot",
      "seriesOverrides": [],
      "spaceLength": 10,
      "stack": false,
      "steppedLine": false,
      "targets": [
        {
          "expr": "round(sum(irate(istio_requests_total{connection_security_policy=\"mutual_tls\", source_workload_namespace=~\"$namespace\", source_workload=~\"$workload\", reporter=\"source\", destination_service=~\"$dstsvc\"}[30s])) by (destination_service, response_code), 0.001)",
          "format": "time_series",
          "intervalFactor": 1,
          "legendFormat": "{{ destination_service }} : {{ response_code }} (🔐mTLS)",
          "refId": "B",
          "step": 2
        },
        {
          "expr": "round(sum(irate(istio_requests_total{connection_security_policy!=\"mutual_tls\", source_workload_namespace=~\"$namespace\", source_workload=~\"$workload\", reporter=\"source\", destination_service=~\"$dstsvc\"}[30s])) by (destination_service, response_code), 0.001)",
          "format": "time_series",
          "hide": false,
          "intervalFactor": 1,
          "legendFormat": "{{ destination_service }} : {{ response_code }}",
          "refId": "A",
          "step": 2
        }
      ],
      "thresholds": [],
      "timeFrom": null,
      "timeShift": null,
      "title": "Outgoing Requests by Destination And Response Code",
      "tooltip": {
        "shared": false,
        "sort": 0,
        "value_type": "individual"
      },
      "type": "graph",
      "xaxis": {
        "buckets": null,
        "mode": "time",
        "name": null,
        "show": true,
        "values": ["total"]
      },
      "yaxes": [
        {
          "format": "ops",
          "label": null,
          "logBase": 1,
          "max": null,
          "min": "0",
          "show": true
        },
        {
          "format": "short",
          "label": null,
          "logBase": 1,
          "max": null,
          "min": null,
          "show": false
        }
      ],
      "yaxis": {
        "align": false,
        "alignLevel": null
      }
    },
    {
      "aliasColors": {},
      "bars": false,
      "dashLength": 10,
      "dashes": false,
      "datasource": "Prometheus",
      "fill": 1,
      "gridPos": {
        "h": 6,
        "w": 12,
        "x": 12,
        "y": 11
      },
      "id": 71,
      "legend": {
        "avg": false,
        "current": false,
        "hideEmpty": true,
        "hideZero": false,
        "max": false,
        "min": false,
        "show": true,
        "total": false,
        "values": false
      },
      "lines": true,
      "linewidth": 1,
      "links": [],
      "nullPointMode": "null",
      "percentage": false,
      "pointradius": 5,
      "points": false,
      "renderer": "flot",
      "seriesOverrides": [],
      "spaceLength": 10,
      "stack": false,
      "steppedLine": false,
      "targets": [
        {
          "expr": "sum(rate(istio_requests_total{reporter=\"source\", connection_security_policy=\"mutual_tls\", source_workload_namespace=~\"$namespace\", source_workload=~\"$workload\",response_code!~\"5.*\", destination_service=~\"$dstsvc\"}[30s])) by (destination_service) / sum(rate(istio_requests_total{reporter=\"source\", connection_security_policy=\"mutual_tls\", source_workload_namespace=~\"$namespace\", source_workload=~\"$workload\", destination_service=~\"$dstsvc\"}[30s])) by (destination_service)",
          "format": "time_series",
          "hide": false,
          "intervalFactor": 1,
          "legendFormat": "{{ destination_service }} (🔐mTLS)",
          "refId": "A",
          "step": 2
        },
        {
          "expr": "sum(rate(istio_requests_total{reporter=\"source\", connection_security_policy!=\"mutual_tls\", source_workload_namespace=~\"$namespace\", source_workload=~\"$workload\",response_code!~\"5.*\", destination_service=~\"$dstsvc\"}[30s])) by (destination_service) / sum(rate(istio_requests_total{reporter=\"source\", connection_security_policy!=\"mutual_tls\", source_workload_namespace=~\"$namespace\", source_workload=~\"$workload\", destination_service=~\"$dstsvc\"}[30s])) by (destination_service)",
          "format": "time_series",
          "hide": false,
          "intervalFactor": 1,
          "legendFormat": "{{destination_service }}",
          "refId": "B",
          "step": 2
        }
      ],
      "thresholds": [],
      "timeFrom": null,
      "timeShift": null,
      "title": "Outgoing Success Rate (non-5xx responses) By Destination",
      "tooltip": {
        "shared": true,
        "sort": 0,
        "value_type": "individual"
      },
      "type": "graph",
      "xaxis": {
        "buckets": null,
        "mode": "time",
        "name": null,
        "show": true,
        "values": []
      },
      "yaxes": [
        {
          "format": "percentunit",
          "label": null,
          "logBase": 1,
          "max": "1.01",
          "min": "0",
          "show": true
        },
        {
          "format": "short",
          "label": null,
          "logBase": 1,
          "max": null,
          "min": null,
          "show": false
        }
      ],
      "yaxis": {
        "align": false,
        "alignLevel": null
      }
    },
    {
      "aliasColors": {},
      "bars": false,
      "dashLength": 10,
      "dashes": false,
      "datasource": "Prometheus",
      "description": "",
      "fill": 1,
      "gridPos": {
        "h": 6,
        "w": 8,
        "x": 0,
        "y": 17
      },
      "id": 72,
      "legend": {
        "alignAsTable": false,
        "avg": false,
        "current": false,
        "hideEmpty": true,
        "hideZero": false,
        "max": false,
        "min": false,
        "rightSide": false,
        "show": true,
        "total": false,
        "values": false
      },
      "lines": true,
      "linewidth": 1,
      "links": [],
      "nullPointMode": "null",
      "percentage": false,
      "pointradius": 5,
      "points": false,
      "renderer": "flot",
      "seriesOverrides": [],
      "spaceLength": 10,
      "stack": false,
      "steppedLine": false,
      "targets": [
        {
          "expr": "histogram_quantile(0.50, sum(irate(istio_request_duration_seconds_bucket{reporter=\"source\", connection_security_policy=\"mutual_tls\", source_workload=~\"$workload\", source_workload_namespace=~\"$namespace\", destination_service=~\"$dstsvc\"}[1m])) by (destination_service, le))",
          "format": "time_series",
          "hide": false,
          "intervalFactor": 1,
          "legendFormat": "{{ destination_service }} P50 (🔐mTLS)",
          "refId": "D",
          "step": 2
        },
        {
          "expr": "histogram_quantile(0.90, sum(irate(istio_request_duration_seconds_bucket{reporter=\"source\", connection_security_policy=\"mutual_tls\", source_workload=~\"$workload\", source_workload_namespace=~\"$namespace\", destination_service=~\"$dstsvc\"}[1m])) by (destination_service, le))",
          "format": "time_series",
          "hide": false,
          "intervalFactor": 1,
          "legendFormat": "{{ destination_service }} P90 (🔐mTLS)",
          "refId": "A",
          "step": 2
        },
        {
          "expr": "histogram_quantile(0.95, sum(irate(istio_request_duration_seconds_bucket{reporter=\"source\", connection_security_policy=\"mutual_tls\", source_workload=~\"$workload\", source_workload_namespace=~\"$namespace\", destination_service=~\"$dstsvc\"}[1m])) by (destination_service, le))",
          "format": "time_series",
          "hide": false,
          "intervalFactor": 1,
          "legendFormat": "{{ destination_service }} P95 (🔐mTLS)",
          "refId": "B",
          "step": 2
        },
        {
          "expr": "histogram_quantile(0.99, sum(irate(istio_request_duration_seconds_bucket{reporter=\"source\", connection_security_policy=\"mutual_tls\", source_workload=~\"$workload\", source_workload_namespace=~\"$namespace\", destination_service=~\"$dstsvc\"}[1m])) by (destination_service, le))",
          "format": "time_series",
          "hide": false,
          "intervalFactor": 1,
          "legendFormat": "{{ destination_service }} P99 (🔐mTLS)",
          "refId": "C",
          "step": 2
        },
        {
          "expr": "histogram_quantile(0.50, sum(irate(istio_request_duration_seconds_bucket{reporter=\"source\", connection_security_policy!=\"mutual_tls\", source_workload=~\"$workload\", source_workload_namespace=~\"$namespace\", destination_service=~\"$dstsvc\"}[1m])) by (destination_service, le))",
          "format": "time_series",
          "hide": false,
          "intervalFactor": 1,
          "legendFormat": "{{ destination_service }} P50",
          "refId": "E",
          "step": 2
        },
        {
          "expr": "histogram_quantile(0.90, sum(irate(istio_request_duration_seconds_bucket{reporter=\"source\", connection_security_policy!=\"mutual_tls\", source_workload=~\"$workload\", source_workload_namespace=~\"$namespace\", destination_service=~\"$dstsvc\"}[1m])) by (destination_service, le))",
          "format": "time_series",
          "hide": false,
          "intervalFactor": 1,
          "legendFormat": "{{ destination_service }} P90",
          "refId": "F",
          "step": 2
        },
        {
          "expr": "histogram_quantile(0.95, sum(irate(istio_request_duration_seconds_bucket{reporter=\"source\", connection_security_policy!=\"mutual_tls\", source_workload=~\"$workload\", source_workload_namespace=~\"$namespace\", destination_service=~\"$dstsvc\"}[1m])) by (destination_service, le))",
          "format": "time_series",
          "hide": false,
          "intervalFactor": 1,
          "legendFormat": "{{ destination_service }} P95",
          "refId": "G",
          "step": 2
        },
        {
          "expr": "histogram_quantile(0.99, sum(irate(istio_request_duration_seconds_bucket{reporter=\"source\", connection_security_policy!=\"mutual_tls\", source_workload=~\"$workload\", source_workload_namespace=~\"$namespace\", destination_service=~\"$dstsvc\"}[1m])) by (destination_service, le))",
          "format": "time_series",
          "hide": false,
          "intervalFactor": 1,
          "legendFormat": "{{ destination_service }} P99",
          "refId": "H",
          "step": 2
        }
      ],
      "thresholds": [],
      "timeFrom": null,
      "timeShift": null,
      "title": "Outgoing Request Duration by Destination",
      "tooltip": {
        "shared": true,
        "sort": 0,
        "value_type": "individual"
      },
      "type": "graph",
      "xaxis": {
        "buckets": null,
        "mode": "time",
        "name": null,
        "show": true,
        "values": []
      },
      "yaxes": [
        {
          "format": "s",
          "label": null,
          "logBase": 1,
          "max": null,
          "min": "0",
          "show": true
        },
        {
          "format": "short",
          "label": null,
          "logBase": 1,
          "max": null,
          "min": null,
          "show": false
        }
      ],
      "yaxis": {
        "align": false,
        "alignLevel": null
      }
    },
    {
      "aliasColors": {},
      "bars": false,
      "dashLength": 10,
      "dashes": false,
      "datasource": "Prometheus",
      "fill": 1,
      "gridPos": {
        "h": 6,
        "w": 8,
        "x": 8,
        "y": 17
      },
      "id": 73,
      "legend": {
        "alignAsTable": false,
        "avg": false,
        "current": false,
        "hideEmpty": true,
        "max": false,
        "min": false,
        "rightSide": false,
        "show": true,
        "total": false,
        "values": false
      },
      "lines": true,
      "linewidth": 1,
      "links": [],
      "nullPointMode": "null",
      "percentage": false,
      "pointradius": 5,
      "points": false,
      "renderer": "flot",
      "seriesOverrides": [],
      "spaceLength": 10,
      "stack": false,
      "steppedLine": false,
      "targets": [
        {
          "expr": "histogram_quantile(0.50, sum(irate(istio_request_bytes_bucket{reporter=\"source\", connection_security_policy=\"mutual_tls\", source_workload=~\"$workload\", source_workload_namespace=~\"$namespace\", destination_service=~\"$dstsvc\"}[1m])) by (destination_service, le))",
          "format": "time_series",
          "hide": false,
          "intervalFactor": 1,
          "legendFormat": "{{ destination_service }} P50 (🔐mTLS)",
          "refId": "D",
          "step": 2
        },
        {
          "expr": "histogram_quantile(0.90, sum(irate(istio_request_bytes_bucket{reporter=\"source\", connection_security_policy=\"mutual_tls\", source_workload=~\"$workload\", source_workload_namespace=~\"$namespace\", destination_service=~\"$dstsvc\"}[1m])) by (destination_service, le))",
          "format": "time_series",
          "hide": false,
          "intervalFactor": 1,
          "legendFormat": "{{ destination_service }} P90 (🔐mTLS)",
          "refId": "A",
          "step": 2
        },
        {
          "expr": "histogram_quantile(0.95, sum(irate(istio_request_bytes_bucket{reporter=\"source\", connection_security_policy=\"mutual_tls\", source_workload=~\"$workload\", source_workload_namespace=~\"$namespace\", destination_service=~\"$dstsvc\"}[1m])) by (destination_service, le))",
          "format": "time_series",
          "hide": false,
          "intervalFactor": 1,
          "legendFormat": "{{ destination_service }} P95 (🔐mTLS)",
          "refId": "B",
          "step": 2
        },
        {
          "expr": "histogram_quantile(0.99, sum(irate(istio_request_bytes_bucket{reporter=\"source\", connection_security_policy=\"mutual_tls\", source_workload=~\"$workload\", source_workload_namespace=~\"$namespace\", destination_service=~\"$dstsvc\"}[1m])) by (destination_service, le))",
          "format": "time_series",
          "hide": false,
          "intervalFactor": 1,
          "legendFormat": "{{ destination_service }} P99 (🔐mTLS)",
          "refId": "C",
          "step": 2
        },
        {
          "expr": "histogram_quantile(0.50, sum(irate(istio_request_bytes_bucket{reporter=\"source\", connection_security_policy!=\"mutual_tls\", source_workload=~\"$workload\", source_workload_namespace=~\"$namespace\", destination_service=~\"$dstsvc\"}[1m])) by (destination_service, le))",
          "format": "time_series",
          "hide": false,
          "intervalFactor": 1,
          "legendFormat": "{{ destination_service }} P50",
          "refId": "E",
          "step": 2
        },
        {
          "expr": "histogram_quantile(0.90, sum(irate(istio_request_bytes_bucket{reporter=\"source\", connection_security_policy!=\"mutual_tls\", source_workload=~\"$workload\", source_workload_namespace=~\"$namespace\", destination_service=~\"$dstsvc\"}[1m])) by (destination_service, le))",
          "format": "time_series",
          "hide": false,
          "intervalFactor": 1,
          "legendFormat": "{{ destination_service }} P90",
          "refId": "F",
          "step": 2
        },
        {
          "expr": "histogram_quantile(0.95, sum(irate(istio_request_bytes_bucket{reporter=\"source\", connection_security_policy!=\"mutual_tls\", source_workload=~\"$workload\", source_workload_namespace=~\"$namespace\", destination_service=~\"$dstsvc\"}[1m])) by (destination_service, le))",
          "format": "time_series",
          "hide": false,
          "intervalFactor": 1,
          "legendFormat": "{{ destination_service }} P95",
          "refId": "G",
          "step": 2
        },
        {
          "expr": "histogram_quantile(0.99, sum(irate(istio_request_bytes_bucket{reporter=\"source\", connection_security_policy!=\"mutual_tls\", source_workload=~\"$workload\", source_workload_namespace=~\"$namespace\", destination_service=~\"$dstsvc\"}[1m])) by (destination_service, le))",
          "format": "time_series",
          "hide": false,
          "intervalFactor": 1,
          "legendFormat": "{{ destination_service }} P99",
          "refId": "H",
          "step": 2
        }
      ],
      "thresholds": [],
      "timeFrom": null,
      "timeShift": null,
      "title": "Outgoing Request Size By Destination",
      "tooltip": {
        "shared": true,
        "sort": 0,
        "value_type": "individual"
      },
      "type": "graph",
      "xaxis": {
        "buckets": null,
        "mode": "time",
        "name": null,
        "show": true,
        "values": []
      },
      "yaxes": [
        {
          "format": "decbytes",
          "label": null,
          "logBase": 1,
          "max": null,
          "min": "0",
          "show": true
        },
        {
          "format": "short",
          "label": null,
          "logBase": 1,
          "max": null,
          "min": null,
          "show": false
        }
      ],
      "yaxis": {
        "align": false,
        "alignLevel": null
      }
    },
    {
      "aliasColors": {},
      "bars": false,
      "dashLength": 10,
      "dashes": false,
      "datasource": "Prometheus",
      "fill": 1,
      "gridPos": {
        "h": 6,
        "w": 8,
        "x": 16,
        "y": 17
      },
      "id": 74,
      "legend": {
        "alignAsTable": false,
        "avg": false,
        "current": false,
        "hideEmpty": true,
        "max": false,
        "min": false,
        "rightSide": false,
        "show": true,
        "total": false,
        "values": false
      },
      "lines": true,
      "linewidth": 1,
      "links": [],
      "nullPointMode": "null",
      "percentage": false,
      "pointradius": 5,
      "points": false,
      "renderer": "flot",
      "seriesOverrides": [],
      "spaceLength": 10,
      "stack": false,
      "steppedLine": false,
      "targets": [
        {
          "expr": "histogram_quantile(0.50, sum(irate(istio_response_bytes_bucket{reporter=\"source\", connection_security_policy=\"mutual_tls\", source_workload=~\"$workload\", source_workload_namespace=~\"$namespace\", destination_service=~\"$dstsvc\"}[1m])) by (destination_service, le))",
          "format": "time_series",
          "hide": false,
          "intervalFactor": 1,
          "legendFormat": "{{ destination_service }} P50 (🔐mTLS)",
          "refId": "D",
          "step": 2
        },
        {
          "expr": "histogram_quantile(0.90, sum(irate(istio_response_bytes_bucket{reporter=\"source\", connection_security_policy=\"mutual_tls\", source_workload=~\"$workload\", source_workload_namespace=~\"$namespace\", destination_service=~\"$dstsvc\"}[1m])) by (destination_service, le))",
          "format": "time_series",
          "hide": false,
          "intervalFactor": 1,
          "legendFormat": "{{ destination_service }} P90 (🔐mTLS)",
          "refId": "A",
          "step": 2
        },
        {
          "expr": "histogram_quantile(0.95, sum(irate(istio_response_bytes_bucket{reporter=\"source\", connection_security_policy=\"mutual_tls\", source_workload=~\"$workload\", source_workload_namespace=~\"$namespace\", destination_service=~\"$dstsvc\"}[1m])) by (destination_service, le))",
          "format": "time_series",
          "hide": false,
          "intervalFactor": 1,
          "legendFormat": "{{ destination_service }} P95 (🔐mTLS)",
          "refId": "B",
          "step": 2
        },
        {
          "expr": "histogram_quantile(0.99, sum(irate(istio_response_bytes_bucket{reporter=\"source\", connection_security_policy=\"mutual_tls\", source_workload=~\"$workload\", source_workload_namespace=~\"$namespace\", destination_service=~\"$dstsvc\"}[1m])) by (destination_service, le))",
          "format": "time_series",
          "hide": false,
          "intervalFactor": 1,
          "legendFormat": "{{ destination_service }}  P99 (🔐mTLS)",
          "refId": "C",
          "step": 2
        },
        {
          "expr": "histogram_quantile(0.50, sum(irate(istio_response_bytes_bucket{reporter=\"source\", connection_security_policy!=\"mutual_tls\", source_workload=~\"$workload\", source_workload_namespace=~\"$namespace\", destination_service=~\"$dstsvc\"}[1m])) by (destination_service, le))",
          "format": "time_series",
          "hide": false,
          "intervalFactor": 1,
          "legendFormat": "{{ destination_service }} P50",
          "refId": "E",
          "step": 2
        },
        {
          "expr": "histogram_quantile(0.90, sum(irate(istio_response_bytes_bucket{reporter=\"source\", connection_security_policy!=\"mutual_tls\", source_workload=~\"$workload\", source_workload_namespace=~\"$namespace\", destination_service=~\"$dstsvc\"}[1m])) by (destination_service, le))",
          "format": "time_series",
          "hide": false,
          "intervalFactor": 1,
          "legendFormat": "{{ destination_service }} P90",
          "refId": "F",
          "step": 2
        },
        {
          "expr": "histogram_quantile(0.95, sum(irate(istio_response_bytes_bucket{reporter=\"source\", connection_security_policy!=\"mutual_tls\", source_workload=~\"$workload\", source_workload_namespace=~\"$namespace\", destination_service=~\"$dstsvc\"}[1m])) by (destination_service, le))",
          "format": "time_series",
          "hide": false,
          "intervalFactor": 1,
          "legendFormat": "{{ destination_service }} P95",
          "refId": "G",
          "step": 2
        },
        {
          "expr": "histogram_quantile(0.99, sum(irate(istio_response_bytes_bucket{reporter=\"source\", connection_security_policy!=\"mutual_tls\", source_workload=~\"$workload\", source_workload_namespace=~\"$namespace\", destination_service=~\"$dstsvc\"}[1m])) by (destination_service, le))",
          "format": "time_series",
          "hide": false,
          "intervalFactor": 1,
          "legendFormat": "{{ destination_service }} P99",
          "refId": "H",
          "step": 2
        }
      ],
      "thresholds": [],
      "timeFrom": null,
      "timeShift": null,
      "title": "Response Size By Destination",
      "tooltip": {
        "shared": true,
        "sort": 0,
        "value_type": "individual"
      },
      "type": "graph",
      "xaxis": {
        "buckets": null,
        "mode": "time",
        "name": null,
        "show": true,
        "values": []
      },
      "yaxes": [
        {
          "format": "decbytes",
          "label": null,
          "logBase": 1,
          "max": null,
          "min": "0",
          "show": true
        },
        {
          "format": "short",
          "label": null,
          "logBase": 1,
          "max": null,
          "min": null,
          "show": false
        }
      ],
      "yaxis": {
        "align": false,
        "alignLevel": null
      }
    }
  ],
  "refresh": "10s",
  "schemaVersion": 16,
  "style": "dark",
  "tags": ["service", "\t traffic"],
  "templating": {
    "list": [
      {
        "allValue": null,
        "current": {
          "text": "istio-system",
          "value": "istio-system"
        },
        "datasource": "Prometheus",
        "hide": 0,
        "includeAll": false,
        "label": "Namespace",
        "multi": false,
        "name": "namespace",
        "options": [],
        "query": "query_result(sum(istio_requests_total) by (destination_workload_namespace) or sum(istio_tcp_sent_bytes_total) by (destination_workload_namespace))",
        "refresh": 1,
        "regex": "/.*_namespace=\"([^\"]*).*/",
        "sort": 0,
        "tagValuesQuery": "",
        "tags": [],
        "tagsQuery": "",
        "type": "query",
        "useTags": false
      },
      {
        "allValue": null,
        "current": {
          "tags": [],
          "text": "istio-ingressgateway",
          "value": "istio-ingressgateway"
        },
        "datasource": "Prometheus",
        "hide": 0,
        "includeAll": false,
        "label": "Workload",
        "multi": false,
        "name": "workload",
        "options": [],
        "query": "query_result((sum(istio_requests_total{destination_workload_namespace=~\"$namespace\"}) by (destination_workload) or sum(istio_requests_total{source_workload_namespace=~\"$namespace\"}) by (source_workload)) or (sum(istio_tcp_sent_bytes_total{destination_workload_namespace=~\"$namespace\"}) by (destination_workload) or sum(istio_tcp_sent_bytes_total{source_workload_namespace=~\"$namespace\"}) by (source_workload)))",
        "refresh": 1,
        "regex": "/.*workload=\"([^\"]*).*/",
        "sort": 1,
        "tagValuesQuery": "",
        "tags": [],
        "tagsQuery": "",
        "type": "query",
        "useTags": false
      },
      {
        "allValue": null,
        "current": {
          "text": "All",
          "value": "$__all"
        },
        "datasource": "Prometheus",
        "hide": 0,
        "includeAll": true,
        "label": "Inbound Workload Namespace",
        "multi": true,
        "name": "srcns",
        "options": [],
        "query": "query_result( sum(istio_requests_total{reporter=\"destination\", destination_workload=\"$workload\", destination_workload_namespace=~\"$namespace\"}) by (source_workload_namespace) or sum(istio_tcp_sent_bytes_total{reporter=\"destination\", destination_workload=\"$workload\", destination_workload_namespace=~\"$namespace\"}) by (source_workload_namespace))",
        "refresh": 1,
        "regex": "/.*namespace=\"([^\"]*).*/",
        "sort": 2,
        "tagValuesQuery": "",
        "tags": [],
        "tagsQuery": "",
        "type": "query",
        "useTags": false
      },
      {
        "allValue": null,
        "current": {
          "text": "All",
          "value": "$__all"
        },
        "datasource": "Prometheus",
        "hide": 0,
        "includeAll": true,
        "label": "Inbound Workload",
        "multi": true,
        "name": "srcwl",
        "options": [],
        "query": "query_result( sum(istio_requests_total{reporter=\"destination\", destination_workload=\"$workload\", destination_workload_namespace=~\"$namespace\", source_workload_namespace=~\"$srcns\"}) by (source_workload) or sum(istio_tcp_sent_bytes_total{reporter=\"destination\", destination_workload=\"$workload\", destination_workload_namespace=~\"$namespace\", source_workload_namespace=~\"$srcns\"}) by (source_workload))",
        "refresh": 1,
        "regex": "/.*workload=\"([^\"]*).*/",
        "sort": 3,
        "tagValuesQuery": "",
        "tags": [],
        "tagsQuery": "",
        "type": "query",
        "useTags": false
      },
      {
        "allValue": null,
        "current": {
          "text": "All",
          "value": "$__all"
        },
        "datasource": "Prometheus",
        "hide": 0,
        "includeAll": true,
        "label": "Destination Service",
        "multi": true,
        "name": "dstsvc",
        "options": [],
        "query": "query_result( sum(istio_requests_total{reporter=\"source\", source_workload=~\"$workload\", source_workload_namespace=~\"$namespace\"}) by (destination_service) or sum(istio_tcp_sent_bytes_total{reporter=\"source\", source_workload=~\"$workload\", source_workload_namespace=~\"$namespace\"}) by (destination_service))",
        "refresh": 1,
        "regex": "/.*destination_service=\"([^\"]*).*/",
        "sort": 4,
        "tagValuesQuery": "",
        "tags": [],
        "tagsQuery": "",
        "type": "query",
        "useTags": false
      }
    ]
  },
  "time": {
    "from": "now-5m",
    "to": "now"
  },
  "timepicker": {
    "refresh_intervals": ["5s", "10s", "30s", "1m", "5m", "15m", "30m", "1h", "2h", "1d"],
    "time_options": ["5m", "15m", "1h", "6h", "12h", "24h", "2d", "7d", "30d"]
  },
  "timezone": "",
  "title": "Services Monitoring"
}
